{
"shipping_method": [
	{
		"id" : 1,
		"method_name" : "Standard",
		"cost" : 5.90
	},
	{
		"id" : 2,
		"method_name" : "Priority",
		"cost" : 8.90
	},
	{
		"id" : 3,
		"method_name" : "Express",
		"cost" : 11.90
	},
	{
		"id" : 4,
		"method_name" : "International",
		"cost" : 24.50
	}
]}
